﻿1. Оно - С.Кинг - 1986г.
2. Герой нашего времени - М.Ю.Лермонтов - 1840г.
3. Мартин Иден - Д.Лондон - 1909 г.
4. Коллекционер - Д.Фаулз - 1963г.
5. Портрет Дориана Грея - О.Уайльд - 1890г.
6. 451 градус по фаренгейту - Р.Брэдбери - 1953г.
7. Цветы для Эджерона - Д.Киз - 1959г.
8. 1984 - Д.Оруэлл - 1949г.
9. Остров - О.Хаксли - 1962г.
10.По эту сторону рая - Ф.С.Фицджеральд - 1920г.